com\mycompany\usermanagment\UserPanel$3.class
com\mycompany\usermanagment\TestReadFile.class
com\mycompany\usermanagment\MainFrame$1.class
com\mycompany\usermanagment\LoginFrame$4.class
com\mycompany\usermanagment\TestWriteFile.class
com\mycompany\usermanagment\User.class
com\mycompany\usermanagment\LoginFrame$3.class
com\mycompany\usermanagment\LoginFrame$2.class
com\mycompany\usermanagment\UserPanel$1.class
com\mycompany\usermanagment\MainFrame.class
com\mycompany\usermanagment\LoginFrame.class
com\mycompany\usermanagment\UserPanel$2.class
com\mycompany\usermanagment\UserPanel.class
com\mycompany\usermanagment\UserService.class
com\mycompany\usermanagment\LoginFrame$1.class
